,Date,Lat,Lon
0,2014-06-17,45.651260376,-56.3180656433
1,2014-06-17,45.6637840271,-56.3278465271
2,2014-06-17,45.6573371887,-56.34217453
3,2014-06-17,45.6576156616,-56.3426742554
4,2014-06-17,45.6576194763,-56.3426742554
5,2014-06-17,45.6831474304,-56.3474807739
6,2014-06-17,45.683158874499995,-56.347492218
7,2014-06-17,45.68375396729999,-56.348346710200005
8,2014-06-17,45.6908950806,-56.378814697299994
9,2014-06-17,45.6915588379,-56.379833221400006
10,2014-06-17,45.6915588379,-56.3798942566
11,2014-06-17,45.806270599399994,-56.251346588100006
12,2014-06-17,45.8068733215,-56.251525878900004
13,2014-06-17,45.807247161899994,-56.251625061000006
14,2014-06-17,45.807460784899995,-56.2516784668
15,2014-06-17,45.8081016541,-56.251861572299994
16,2014-06-17,45.8083114624,-56.2519187927
17,2014-06-17,45.808506011999995,-56.251972198500006
18,2014-06-18,45.835247039799995,-56.2315139771
19,2014-06-18,45.8463363647,-56.2267074585
20,2014-06-18,45.8468208313,-56.2592735291
21,2014-06-18,45.799026489300005,-56.219707488999994
22,2014-06-18,45.79866790770001,-56.2344818115
23,2014-06-18,45.7924346924,-56.2130317688
24,2014-06-18,45.792514801,-56.21326828
25,2014-06-18,45.79257202149999,-56.2132949829
26,2014-06-18,45.7926597595,-56.213306427
27,2014-06-18,45.774963378900004,-56.2010269165
28,2014-06-18,45.7444610596,-56.2119598389
29,2014-06-18,45.7271194458,-56.242275238000005
30,2014-06-18,45.7111740112,-56.2755584717
31,2014-06-18,45.7008209229,-56.298213958699996
32,2014-06-18,45.696899414099995,-56.3107414246
33,2014-06-18,45.6867027283,-56.353507995600005
34,2014-06-18,45.6876144409,-56.3613929749
35,2014-06-18,45.6869659424,-56.3584747314
36,2014-06-18,45.686367034899995,-56.353813171400006
37,2014-06-18,45.6856193542,-56.3443527222
38,2014-06-18,45.6858253479,-56.342086791999996
39,2014-06-18,45.6887550354,-56.3356933594
40,2014-06-18,45.6888656616,-56.3357315063
41,2014-06-18,45.688911438000005,-56.335746765100005
42,2014-06-18,45.688999176,-56.335746765100005
43,2014-06-19,45.6952056885,-56.339572906499995
44,2014-06-19,45.7060279846,-56.3468132019
45,2014-06-17,45.651260376,-56.3180656433
46,2014-06-17,45.6637840271,-56.3278465271
47,2014-06-17,45.6573371887,-56.34217453
48,2014-06-17,45.6576156616,-56.3426742554
49,2014-06-17,45.6576194763,-56.3426742554
50,2014-06-17,45.6831474304,-56.3474807739
51,2014-06-17,45.683158874499995,-56.347492218
52,2014-06-17,45.68375396729999,-56.348346710200005
53,2014-06-17,45.6908950806,-56.378814697299994
54,2014-06-17,45.6915588379,-56.379833221400006
55,2014-06-17,45.6915588379,-56.3798942566
56,2014-06-17,45.806270599399994,-56.251346588100006
57,2014-06-17,45.8068733215,-56.251525878900004
58,2014-06-17,45.807247161899994,-56.251625061000006
59,2014-06-17,45.807460784899995,-56.2516784668
60,2014-06-17,45.8081016541,-56.251861572299994
61,2014-06-17,45.8083114624,-56.2519187927
62,2014-06-17,45.808506011999995,-56.251972198500006
63,2014-06-18,45.835247039799995,-56.2315139771
64,2014-06-18,45.8463363647,-56.2267074585
65,2014-06-18,45.8468208313,-56.2592735291
66,2014-06-18,45.799026489300005,-56.219707488999994
67,2014-06-18,45.79866790770001,-56.2344818115
68,2014-06-18,45.7924346924,-56.2130317688
69,2014-06-18,45.792514801,-56.21326828
70,2014-06-18,45.79257202149999,-56.2132949829
71,2014-06-18,45.7926597595,-56.213306427
72,2014-06-18,45.774963378900004,-56.2010269165
73,2014-06-18,45.7444610596,-56.2119598389
74,2014-06-18,45.7271194458,-56.242275238000005
75,2014-06-18,45.7111740112,-56.2755584717
76,2014-06-18,45.7008209229,-56.298213958699996
77,2014-06-18,45.696899414099995,-56.3107414246
78,2014-06-18,45.6867027283,-56.353507995600005
79,2014-06-18,45.6876144409,-56.3613929749
80,2014-06-18,45.6869659424,-56.3584747314
81,2014-06-18,45.686367034899995,-56.353813171400006
82,2014-06-18,45.6856193542,-56.3443527222
83,2014-06-18,45.6858253479,-56.342086791999996
84,2014-06-18,45.6887550354,-56.3356933594
85,2014-06-18,45.6888656616,-56.3357315063
86,2014-06-18,45.688911438000005,-56.335746765100005
87,2014-06-18,45.688999176,-56.335746765100005
88,2014-06-19,45.6952056885,-56.339572906499995
89,2014-06-19,45.7060279846,-56.3468132019
