,Date,Lat,Lon
0,2014-10-22,-1.0160382986,178.92868041990002
1,2014-10-22,-1.0346133709,178.890045166
2,2014-10-22,-0.9789733291,178.99082946779998
3,2014-10-22,-0.9779016376,178.9925537109
4,2014-10-22,-0.9775500298,178.9931488037
5,2014-10-22,-0.977248311,178.9937744141
6,2014-10-22,-0.9762966633,178.99559021
7,2014-10-22,-0.9760366678,178.9961547852
8,2014-10-22,-0.9757933617,178.9967803955
9,2014-10-22,-0.9752399920999999,178.9984741211
10,2014-10-22,-0.9672666788,179.1291809082
11,2014-10-22,-0.9667083620999999,179.1315002441
12,2014-10-22,-0.9662566781,179.13333129880002
13,2014-10-22,-0.9571783543000001,179.26348876950001
14,2014-10-22,-0.9571866393,179.2649536133
15,2014-10-22,-0.9574116468000001,179.26608276369998
16,2014-10-22,-0.9575766921,179.2667999268
17,2014-10-22,-0.9576816559,179.26803588869998
18,2014-10-22,-0.9580716491,179.27137756349998
19,2014-10-22,-0.9581933618,179.2722015381
20,2014-10-22,-1.0311483145,179.36701965330002
21,2014-10-22,-1.0332683325,179.3679656982
22,2014-10-22,-1.0347766876,179.3687438965
23,2014-10-22,-1.0371199845999999,179.37022399900002
24,2014-10-22,-1.0379049778,179.37063598630002
25,2014-10-22,-1.0386066437,179.37101745610002
26,2014-10-22,-1.0392099619,179.37130737299998
27,2014-10-22,-1.039634943,179.37147521970002
28,2014-10-22,-1.0402516126999999,179.37188720700001
29,2014-10-22,-1.0422466993000001,179.3736572266
30,2014-10-22,-1.046898365,179.3762664795
31,2014-10-22,-1.0475000143000002,179.3765869141
32,2014-10-22,-1.0496783257,179.37744140619998
33,2014-10-22,-1.1540900469,179.39012146
34,2014-10-22,-1.1545766592,179.3900756836
35,2014-10-22,-1.1552466154,179.39002990720002
36,2014-10-22,-1.1574283838,179.3897857666
37,2014-10-22,-1.1588066816,179.3895111084
38,2014-10-22,-1.1593766212,179.3893585205
39,2014-10-22,-1.1598066092000001,179.3892211914
40,2014-10-22,-1.1603649855,179.38905334470002
41,2014-10-22,-1.1608316898,179.38885498049999
42,2014-10-22,-1.1612333059,179.3887329102
43,2014-10-22,-1.1618783473999998,179.38856506349998
44,2014-10-22,-1.1638783216,179.3876800537
45,2014-10-22,-1.1684149504,179.38606262209998
46,2014-10-22,-1.1689916849,179.38584899900002
47,2014-10-22,-1.1695133448000001,179.3857574463
48,2014-10-22,-1.1703250407999999,179.38592529299999
49,2014-10-22,-1.171018362,179.3864593506
50,2014-10-22,-1.1709283590000001,179.38722229
51,2014-10-22,-1.2863366604000002,179.3726196289
52,2014-10-22,-1.2920199633,179.3733825684
53,2014-10-22,-1.2943799496,179.3740692139
54,2014-10-22,-1.3013199568,179.3765869141
55,2014-10-22,-1.3026850224,179.37712097169998
56,2014-10-22,-1.3043216467,179.37774658200001
57,2014-10-22,-1.3075050116,179.3789520264
58,2014-10-22,-1.4299383163,179.37074279790002
59,2014-10-22,-1.4320050478,179.37049865720002
60,2014-10-22,-1.3910249472,179.2612457275
61,2014-10-22,-1.0929833651,179.04513549799998
62,2014-10-22,-0.8733850121,179.0486907959
63,2014-10-22,-0.8535066843000001,178.98901367189998
64,2014-10-22,-0.8536999822,178.9867706299
65,2014-10-22,-0.8538066745,178.9856872559
66,2014-10-22,-0.8538783193,178.9844970703
67,2014-10-22,-0.8539649844,178.9834594727
68,2014-10-22,-0.8540533185,178.9823303223
69,2014-10-22,-0.8541733623000001,178.98123168950002
70,2014-10-22,-0.8542733192,178.9800720215
71,2014-10-22,-0.8544566631,178.97785949709998
72,2014-10-22,-0.8554816842,178.97241210939998
73,2014-10-23,-1.0018767118,178.9550170898
74,2014-10-23,-1.0051183701000002,178.9549407959
75,2014-10-23,-1.0061750412000001,178.95491027830002
76,2014-10-23,-1.0072916746,178.9548797607
77,2014-10-23,-1.0105483532,178.95475769040002
78,2014-10-23,-1.2458616495000001,178.94827270509998
79,2014-10-23,-1.2501399517,178.9481201172
80,2014-10-23,-1.264316678,179.0376739502
81,2014-10-23,-1.2637432814,179.038772583
82,2014-10-23,-1.262804985,179.0401306152
83,2014-10-23,-1.2623482943000002,179.04083251950001
84,2014-10-23,-1.2618316412000001,179.0415496826
85,2014-10-23,-1.1419299841,179.06300354
86,2014-10-23,-1.1405966282,179.0631713867
87,2014-10-23,-1.1399433612999998,179.0632781982
88,2014-10-23,-1.1388933659,179.06344604490002
89,2014-10-23,-1.1369433403,179.06372070310002
90,2014-10-23,-0.9946416616,179.07069396970002
91,2014-10-23,-0.9941266775,179.0707244873
92,2014-10-23,-0.9927866459,179.0704498291
93,2014-10-23,-0.9920916556999999,179.0703582764
94,2014-10-23,-0.9914516806999999,179.0703277588
95,2014-10-23,-0.9907900095000001,179.07023620610002
96,2014-10-23,-0.9876099825,179.0700073242
97,2014-10-23,-0.9872350097,179.07006835939998
98,2014-10-23,-0.9847333431,179.06965637209998
99,2014-10-23,-0.853636682,179.05891418459998
100,2014-10-23,-0.8509633541,179.0578765869
101,2014-10-23,-0.8497066498,179.0572814941
102,2014-10-23,-0.8471016884,179.05584716799999
103,2014-10-23,-0.8464400172,179.05549621580002
104,2014-10-23,-0.8450383544,179.0547332764
105,2014-10-23,-0.8443466425,179.05433654790002
106,2014-10-23,-0.8438916801999999,179.0540466309
107,2014-10-23,-0.843568325,179.05381774900002
108,2014-10-23,-0.8433433175,179.0535888672
109,2014-10-23,-0.8429666758,179.0532836914
110,2014-10-23,-0.8423333168000001,179.05291748049999
111,2014-10-23,-0.8400149940999999,179.0514831543
112,2014-10-23,-0.8394633531999999,179.0511169434
113,2014-10-23,-0.8227999806,179.0043792725
114,2014-10-23,-0.8327366709999999,178.974319458
115,2014-10-23,-0.8335383534,178.9739379883
116,2014-10-23,-0.8342916369,178.9735412598
117,2014-10-23,-0.8351466656000001,178.97317504880002
118,2014-10-23,-0.836049974,178.9727935791
119,2014-10-23,-0.8378400207,178.9721069336
120,2014-10-23,-0.8384183048999999,178.9718017578
121,2014-10-23,-0.8392483592000001,178.9715576172
122,2014-10-23,-0.8399733305,178.9712524414
123,2014-10-23,-0.8411933184,178.97088623049999
124,2014-10-23,-0.8424866795999999,178.97053527830002
125,2014-10-23,-0.8430500031,178.9704284668
126,2014-10-23,-0.8438283205,178.9702911377
127,2014-10-23,-0.8447566628000001,178.97007751459998
128,2014-10-23,-0.8822649717000001,178.9642028809
129,2014-10-23,-0.8829916715999999,178.96434021
130,2014-10-23,-0.8854600190999999,178.9647216797
131,2014-10-23,-0.8911683559,178.96546936040002
132,2014-10-23,-0.8919799923999999,178.9655151367
133,2014-10-23,-0.8928133249,178.9655456543
134,2014-10-23,-0.8946166634999999,178.96563720700001
135,2014-10-23,-0.8955833315999999,178.96571350099998
136,2014-10-23,-0.8965083361,178.9658203125
137,2014-10-23,-0.9008749723,178.96598815919998
138,2014-10-23,-0.9692033529,178.96557617189998
139,2014-10-23,-0.9701033235,178.9654083252
140,2014-10-23,-0.9716433287,178.9651489258
141,2014-10-23,-0.9724416733,178.96505737299998
142,2014-10-23,-0.9738000035,178.9648895264
143,2014-10-23,-0.9746000170999999,178.96481323240002
144,2014-10-23,-0.9753916859999999,178.9647216797
145,2014-10-23,-1.0469249487,178.95768737790002
146,2014-10-23,-1.0527449845999999,178.9575042725
147,2014-10-23,-1.0544600487,178.9574737549
148,2014-10-23,-1.0553582906999999,178.9574737549
149,2014-10-23,-1.0582983494,178.9574432373
150,2014-10-23,-1.0615283251,178.9577026367
151,2014-10-23,-1.063264966,178.95768737790002
152,2014-10-23,-1.0646100044,178.95779418950002
153,2014-10-23,-1.2186933756,178.9598236084
154,2014-10-23,-1.0753632784,178.92784118650002
155,2014-10-23,-0.8785499929999999,178.92463684080002
156,2014-10-23,-0.7154549956,178.8553314209
157,2014-10-23,-0.8548066616,178.7481842041
158,2014-10-23,-0.8568816781,178.7481842041
159,2014-10-23,-0.8666650056999999,178.7483062744
160,2014-10-23,-0.8677616715,178.74829101560002
161,2014-10-23,-0.8700050116,178.74829101560002
162,2014-10-23,-0.8710600138,178.74829101560002
163,2014-10-23,-0.8744199872,178.7483062744
164,2014-10-24,-1.003133297,178.8063049316
165,2014-10-24,-1.0025666951999999,178.8279266357
166,2014-10-24,-1.0025533438,178.8289031982
167,2014-10-24,-1.0025399923,178.8298492432
168,2014-10-24,-1.0024833679,178.8336486816
169,2014-10-24,-1.0024299622,178.83837890619998
170,2014-10-24,-1.0166866779000001,178.9114379883
171,2014-10-24,-1.0155032873,178.9124755859
172,2014-10-24,-0.8973466754,178.93739318849998
173,2014-10-24,-0.8959199785999999,178.9372406006
174,2014-10-24,-0.8945216537,178.9370727539
175,2014-10-24,-0.7617533206999999,178.93865966799999
176,2014-10-24,-0.7598999739,178.9381713867
177,2014-10-24,-0.7593666911,178.9379730225
178,2014-10-24,-0.7545049787,178.93644714360002
179,2014-10-24,-0.7532633543,178.936050415
180,2014-10-24,-0.7514316440000001,178.9353485107
181,2014-10-24,-0.7048733234000001,178.80647277830002
182,2014-10-24,-0.7044133544,178.8031616211
183,2014-10-24,-0.7037616372,178.7999267578
184,2014-10-24,-0.7036299706,178.7990875244
185,2014-10-24,-0.7035433054000001,178.79833984380002
186,2014-10-24,-0.7035133243,178.7977294922
187,2014-10-24,-0.7035383581999999,178.79704284669998
188,2014-10-24,-0.703610003,178.79652404790002
189,2014-10-24,-0.7036533356,178.7951965332
190,2014-10-24,-0.7037050128,178.7938995361
191,2014-10-24,-0.7035966516,178.7914276123
192,2014-10-24,-0.7036366463,178.7899169922
193,2014-10-24,-0.7165016531999999,178.748046875
194,2014-10-24,-0.7169150114,178.7485961914
195,2014-10-24,-0.7173183559999999,178.7491760254
196,2014-10-24,-0.8385599852,178.7418823242
197,2014-10-24,-0.8390949965000001,178.74169921880002
198,2014-10-24,-0.8396750093,178.74153137209998
199,2014-10-24,-0.8401483297,178.7413482666
200,2014-10-24,-0.8421850204000001,178.74061584470002
201,2014-10-24,-0.8441983461,178.7397918701
202,2014-10-24,-0.8454883098999999,178.7393035889
203,2014-10-24,-0.8461133242000001,178.7390594482
204,2014-10-24,-0.8467950225,178.7388458252
205,2014-10-24,-0.8491183519,178.737991333
206,2014-10-24,-1.0924816132,178.21839904790002
207,2014-10-24,-1.0924832821,178.2203063965
208,2014-10-24,-1.0924617051999999,178.22428894040002
209,2014-10-24,-1.0924550295,178.2261657715
210,2014-10-24,-1.092441678,178.22715759279998
211,2014-10-25,-0.9891300201000001,178.1339416504
212,2014-10-25,-0.98886168,178.1344909668
213,2014-10-25,-0.9886450171,178.13508605959998
214,2014-10-25,-0.9884783626000001,178.13571166990002
215,2014-10-25,-0.9883700013,178.1363525391
216,2014-10-25,-0.9882033467,178.1370544434
217,2014-10-25,-0.9878200293000001,178.1384429932
218,2014-10-25,-0.9876400231999999,178.1390991211
219,2014-10-25,-0.987193346,178.14111328119998
220,2014-10-25,-0.9870883226,178.14181518549998
221,2014-10-25,-0.9870250225,178.1425933838
222,2014-10-25,-0.9869716762999999,178.1433258057
223,2014-10-25,-0.9868783354999999,178.1441040039
224,2014-10-25,-0.9867933393,178.144821167
225,2014-10-25,-0.9866616726,178.14637756349998
226,2014-10-25,-0.986594975,178.14710998540002
227,2014-10-22,-1.0160382986,178.92868041990002
228,2014-10-22,-1.0346133709,178.890045166
229,2014-10-22,-0.9789733291,178.99082946779998
230,2014-10-22,-0.9779016376,178.9925537109
231,2014-10-22,-0.9775500298,178.9931488037
232,2014-10-22,-0.977248311,178.9937744141
233,2014-10-22,-0.9762966633,178.99559021
234,2014-10-22,-0.9760366678,178.9961547852
235,2014-10-22,-0.9757933617,178.9967803955
236,2014-10-22,-0.9752399920999999,178.9984741211
237,2014-10-22,-0.9672666788,179.1291809082
238,2014-10-22,-0.9667083620999999,179.1315002441
239,2014-10-22,-0.9662566781,179.13333129880002
240,2014-10-22,-0.9571783543000001,179.26348876950001
241,2014-10-22,-0.9571866393,179.2649536133
242,2014-10-22,-0.9574116468000001,179.26608276369998
243,2014-10-22,-0.9575766921,179.2667999268
244,2014-10-22,-0.9576816559,179.26803588869998
245,2014-10-22,-0.9580716491,179.27137756349998
246,2014-10-22,-0.9581933618,179.2722015381
247,2014-10-22,-1.0311483145,179.36701965330002
248,2014-10-22,-1.0332683325,179.3679656982
249,2014-10-22,-1.0347766876,179.3687438965
250,2014-10-22,-1.0371199845999999,179.37022399900002
251,2014-10-22,-1.0379049778,179.37063598630002
252,2014-10-22,-1.0386066437,179.37101745610002
253,2014-10-22,-1.0392099619,179.37130737299998
254,2014-10-22,-1.039634943,179.37147521970002
255,2014-10-22,-1.0402516126999999,179.37188720700001
256,2014-10-22,-1.0422466993000001,179.3736572266
257,2014-10-22,-1.046898365,179.3762664795
258,2014-10-22,-1.0475000143000002,179.3765869141
259,2014-10-22,-1.0496783257,179.37744140619998
260,2014-10-22,-1.1540900469,179.39012146
261,2014-10-22,-1.1545766592,179.3900756836
262,2014-10-22,-1.1552466154,179.39002990720002
263,2014-10-22,-1.1574283838,179.3897857666
264,2014-10-22,-1.1588066816,179.3895111084
265,2014-10-22,-1.1593766212,179.3893585205
266,2014-10-22,-1.1598066092000001,179.3892211914
267,2014-10-22,-1.1603649855,179.38905334470002
268,2014-10-22,-1.1608316898,179.38885498049999
269,2014-10-22,-1.1612333059,179.3887329102
270,2014-10-22,-1.1618783473999998,179.38856506349998
271,2014-10-22,-1.1638783216,179.3876800537
272,2014-10-22,-1.1684149504,179.38606262209998
273,2014-10-22,-1.1689916849,179.38584899900002
274,2014-10-22,-1.1695133448000001,179.3857574463
275,2014-10-22,-1.1703250407999999,179.38592529299999
276,2014-10-22,-1.171018362,179.3864593506
277,2014-10-22,-1.1709283590000001,179.38722229
278,2014-10-22,-1.2863366604000002,179.3726196289
279,2014-10-22,-1.2920199633,179.3733825684
280,2014-10-22,-1.2943799496,179.3740692139
281,2014-10-22,-1.3013199568,179.3765869141
282,2014-10-22,-1.3026850224,179.37712097169998
283,2014-10-22,-1.3043216467,179.37774658200001
284,2014-10-22,-1.3075050116,179.3789520264
285,2014-10-22,-1.4299383163,179.37074279790002
286,2014-10-22,-1.4320050478,179.37049865720002
287,2014-10-22,-1.3910249472,179.2612457275
288,2014-10-22,-1.0929833651,179.04513549799998
289,2014-10-22,-0.8733850121,179.0486907959
290,2014-10-22,-0.8535066843000001,178.98901367189998
291,2014-10-22,-0.8536999822,178.9867706299
292,2014-10-22,-0.8538066745,178.9856872559
293,2014-10-22,-0.8538783193,178.9844970703
294,2014-10-22,-0.8539649844,178.9834594727
295,2014-10-22,-0.8540533185,178.9823303223
296,2014-10-22,-0.8541733623000001,178.98123168950002
297,2014-10-22,-0.8542733192,178.9800720215
298,2014-10-22,-0.8544566631,178.97785949709998
299,2014-10-22,-0.8554816842,178.97241210939998
300,2014-10-23,-1.0018767118,178.9550170898
301,2014-10-23,-1.0051183701000002,178.9549407959
302,2014-10-23,-1.0061750412000001,178.95491027830002
303,2014-10-23,-1.0072916746,178.9548797607
304,2014-10-23,-1.0105483532,178.95475769040002
305,2014-10-23,-1.2458616495000001,178.94827270509998
306,2014-10-23,-1.2501399517,178.9481201172
307,2014-10-23,-1.264316678,179.0376739502
308,2014-10-23,-1.2637432814,179.038772583
309,2014-10-23,-1.262804985,179.0401306152
310,2014-10-23,-1.2623482943000002,179.04083251950001
311,2014-10-23,-1.2618316412000001,179.0415496826
312,2014-10-23,-1.1419299841,179.06300354
313,2014-10-23,-1.1405966282,179.0631713867
314,2014-10-23,-1.1399433612999998,179.0632781982
315,2014-10-23,-1.1388933659,179.06344604490002
316,2014-10-23,-1.1369433403,179.06372070310002
317,2014-10-23,-0.9946416616,179.07069396970002
318,2014-10-23,-0.9941266775,179.0707244873
319,2014-10-23,-0.9927866459,179.0704498291
320,2014-10-23,-0.9920916556999999,179.0703582764
321,2014-10-23,-0.9914516806999999,179.0703277588
322,2014-10-23,-0.9907900095000001,179.07023620610002
323,2014-10-23,-0.9876099825,179.0700073242
324,2014-10-23,-0.9872350097,179.07006835939998
325,2014-10-23,-0.9847333431,179.06965637209998
326,2014-10-23,-0.853636682,179.05891418459998
327,2014-10-23,-0.8509633541,179.0578765869
328,2014-10-23,-0.8497066498,179.0572814941
329,2014-10-23,-0.8471016884,179.05584716799999
330,2014-10-23,-0.8464400172,179.05549621580002
331,2014-10-23,-0.8450383544,179.0547332764
332,2014-10-23,-0.8443466425,179.05433654790002
333,2014-10-23,-0.8438916801999999,179.0540466309
334,2014-10-23,-0.843568325,179.05381774900002
335,2014-10-23,-0.8433433175,179.0535888672
336,2014-10-23,-0.8429666758,179.0532836914
337,2014-10-23,-0.8423333168000001,179.05291748049999
338,2014-10-23,-0.8400149940999999,179.0514831543
339,2014-10-23,-0.8394633531999999,179.0511169434
340,2014-10-23,-0.8227999806,179.0043792725
341,2014-10-23,-0.8327366709999999,178.974319458
342,2014-10-23,-0.8335383534,178.9739379883
343,2014-10-23,-0.8342916369,178.9735412598
344,2014-10-23,-0.8351466656000001,178.97317504880002
345,2014-10-23,-0.836049974,178.9727935791
346,2014-10-23,-0.8378400207,178.9721069336
347,2014-10-23,-0.8384183048999999,178.9718017578
348,2014-10-23,-0.8392483592000001,178.9715576172
349,2014-10-23,-0.8399733305,178.9712524414
350,2014-10-23,-0.8411933184,178.97088623049999
351,2014-10-23,-0.8424866795999999,178.97053527830002
352,2014-10-23,-0.8430500031,178.9704284668
353,2014-10-23,-0.8438283205,178.9702911377
354,2014-10-23,-0.8447566628000001,178.97007751459998
355,2014-10-23,-0.8822649717000001,178.9642028809
356,2014-10-23,-0.8829916715999999,178.96434021
357,2014-10-23,-0.8854600190999999,178.9647216797
358,2014-10-23,-0.8911683559,178.96546936040002
359,2014-10-23,-0.8919799923999999,178.9655151367
360,2014-10-23,-0.8928133249,178.9655456543
361,2014-10-23,-0.8946166634999999,178.96563720700001
362,2014-10-23,-0.8955833315999999,178.96571350099998
363,2014-10-23,-0.8965083361,178.9658203125
364,2014-10-23,-0.9008749723,178.96598815919998
365,2014-10-23,-0.9692033529,178.96557617189998
366,2014-10-23,-0.9701033235,178.9654083252
367,2014-10-23,-0.9716433287,178.9651489258
368,2014-10-23,-0.9724416733,178.96505737299998
369,2014-10-23,-0.9738000035,178.9648895264
370,2014-10-23,-0.9746000170999999,178.96481323240002
371,2014-10-23,-0.9753916859999999,178.9647216797
372,2014-10-23,-1.0469249487,178.95768737790002
373,2014-10-23,-1.0527449845999999,178.9575042725
374,2014-10-23,-1.0544600487,178.9574737549
375,2014-10-23,-1.0553582906999999,178.9574737549
376,2014-10-23,-1.0582983494,178.9574432373
377,2014-10-23,-1.0615283251,178.9577026367
378,2014-10-23,-1.063264966,178.95768737790002
379,2014-10-23,-1.0646100044,178.95779418950002
380,2014-10-23,-1.2186933756,178.9598236084
381,2014-10-23,-1.0753632784,178.92784118650002
382,2014-10-23,-0.8785499929999999,178.92463684080002
383,2014-10-23,-0.7154549956,178.8553314209
384,2014-10-23,-0.8548066616,178.7481842041
385,2014-10-23,-0.8568816781,178.7481842041
386,2014-10-23,-0.8666650056999999,178.7483062744
387,2014-10-23,-0.8677616715,178.74829101560002
388,2014-10-23,-0.8700050116,178.74829101560002
389,2014-10-23,-0.8710600138,178.74829101560002
390,2014-10-23,-0.8744199872,178.7483062744
391,2014-10-24,-1.003133297,178.8063049316
392,2014-10-24,-1.0025666951999999,178.8279266357
393,2014-10-24,-1.0025533438,178.8289031982
394,2014-10-24,-1.0025399923,178.8298492432
395,2014-10-24,-1.0024833679,178.8336486816
396,2014-10-24,-1.0024299622,178.83837890619998
397,2014-10-24,-1.0166866779000001,178.9114379883
398,2014-10-24,-1.0155032873,178.9124755859
399,2014-10-24,-0.8973466754,178.93739318849998
400,2014-10-24,-0.8959199785999999,178.9372406006
401,2014-10-24,-0.8945216537,178.9370727539
402,2014-10-24,-0.7617533206999999,178.93865966799999
403,2014-10-24,-0.7598999739,178.9381713867
404,2014-10-24,-0.7593666911,178.9379730225
405,2014-10-24,-0.7545049787,178.93644714360002
406,2014-10-24,-0.7532633543,178.936050415
407,2014-10-24,-0.7514316440000001,178.9353485107
408,2014-10-24,-0.7048733234000001,178.80647277830002
409,2014-10-24,-0.7044133544,178.8031616211
410,2014-10-24,-0.7037616372,178.7999267578
411,2014-10-24,-0.7036299706,178.7990875244
412,2014-10-24,-0.7035433054000001,178.79833984380002
413,2014-10-24,-0.7035133243,178.7977294922
414,2014-10-24,-0.7035383581999999,178.79704284669998
415,2014-10-24,-0.703610003,178.79652404790002
416,2014-10-24,-0.7036533356,178.7951965332
417,2014-10-24,-0.7037050128,178.7938995361
418,2014-10-24,-0.7035966516,178.7914276123
419,2014-10-24,-0.7036366463,178.7899169922
420,2014-10-24,-0.7165016531999999,178.748046875
421,2014-10-24,-0.7169150114,178.7485961914
422,2014-10-24,-0.7173183559999999,178.7491760254
423,2014-10-24,-0.8385599852,178.7418823242
424,2014-10-24,-0.8390949965000001,178.74169921880002
425,2014-10-24,-0.8396750093,178.74153137209998
426,2014-10-24,-0.8401483297,178.7413482666
427,2014-10-24,-0.8421850204000001,178.74061584470002
428,2014-10-24,-0.8441983461,178.7397918701
429,2014-10-24,-0.8454883098999999,178.7393035889
430,2014-10-24,-0.8461133242000001,178.7390594482
431,2014-10-24,-0.8467950225,178.7388458252
432,2014-10-24,-0.8491183519,178.737991333
433,2014-10-24,-1.0924816132,178.21839904790002
434,2014-10-24,-1.0924832821,178.2203063965
435,2014-10-24,-1.0924617051999999,178.22428894040002
436,2014-10-24,-1.0924550295,178.2261657715
437,2014-10-24,-1.092441678,178.22715759279998
438,2014-10-25,-0.9891300201000001,178.1339416504
439,2014-10-25,-0.98886168,178.1344909668
440,2014-10-25,-0.9886450171,178.13508605959998
441,2014-10-25,-0.9884783626000001,178.13571166990002
442,2014-10-25,-0.9883700013,178.1363525391
443,2014-10-25,-0.9882033467,178.1370544434
444,2014-10-25,-0.9878200293000001,178.1384429932
445,2014-10-25,-0.9876400231999999,178.1390991211
446,2014-10-25,-0.987193346,178.14111328119998
447,2014-10-25,-0.9870883226,178.14181518549998
448,2014-10-25,-0.9870250225,178.1425933838
449,2014-10-25,-0.9869716762999999,178.1433258057
450,2014-10-25,-0.9868783354999999,178.1441040039
451,2014-10-25,-0.9867933393,178.144821167
452,2014-10-25,-0.9866616726,178.14637756349998
453,2014-10-25,-0.986594975,178.14710998540002
