,Date,Lat,Lon
0,2014-06-21,-9.0654878616,-176.5691070557
1,2014-06-21,-9.0669517517,-176.5691375732
2,2014-06-21,-9.067741394,-176.56916809080002
3,2014-06-21,-9.0688962936,-176.56915283200001
4,2014-06-21,-9.184095382699999,-176.5693206787
5,2014-06-21,-9.1854887009,-176.56930541990002
6,2014-06-21,-9.186293602000001,-176.5693359375
7,2014-06-21,-9.1882333755,-176.5691986084
8,2014-06-21,-9.1887645721,-176.56916809080002
9,2014-06-21,-9.1896734238,-176.5690612793
10,2014-06-21,-9.1911363602,-176.56901550290002
11,2014-06-21,-9.1919765472,-176.5690002441
12,2014-06-21,-9.1927967072,-176.56901550290002
13,2014-06-21,-9.1934719086,-176.5689697266
14,2014-06-21,-9.1941146851,-176.568939209
15,2014-06-21,-9.194649696399999,-176.56887817380002
16,2014-06-21,-9.195318222000001,-176.5688323975
17,2014-06-21,-9.196802139299999,-176.5688018799
18,2014-06-21,-9.197574615499999,-176.56874084470002
19,2014-06-21,-9.198451995800001,-176.5687561035
20,2014-06-21,-9.1991767883,-176.56874084470002
21,2014-06-21,-9.2809267044,-176.5581817627
22,2014-06-21,-9.2918367386,-176.5562133789
23,2014-06-21,-9.293094635,-176.5559387207
24,2014-06-21,-9.2933864594,-176.55590820310002
25,2014-06-21,-9.2936449051,-176.55574035639998
26,2014-06-21,-9.2941217422,-176.55545043950002
27,2014-06-21,-9.2946634293,-176.55528259279998
28,2014-06-21,-9.2952136993,-176.5550994873
29,2014-06-21,-9.2958545685,-176.5549163818
30,2014-06-21,-9.297651290900001,-176.5542755127
31,2014-06-21,-9.2979679108,-176.5541381836
32,2014-06-21,-9.2989349365,-176.55389404299999
33,2014-06-21,-9.2998533249,-176.5537261963
34,2014-06-21,-9.3326864243,-176.5589294434
35,2014-06-21,-9.3332586288,-176.5590362549
36,2014-06-21,-9.3337602615,-176.5591278076
37,2014-06-21,-9.3342952728,-176.55921936040002
38,2014-06-21,-9.3352298737,-176.55938720700001
39,2014-06-21,-9.3357381821,-176.55946350099998
40,2014-06-21,-9.3363113403,-176.5595703125
41,2014-06-21,-9.3370018005,-176.5597076416
42,2014-06-21,-9.3376712799,-176.5598297119
43,2014-06-21,-9.338218689,-176.55989074709998
44,2014-06-21,-9.3386220932,-176.5599365234
45,2014-06-21,-9.3389101028,-176.5599060059
46,2014-06-21,-9.3871746063,-176.56483459470002
47,2014-06-21,-9.3886871338,-176.565032959
48,2014-06-21,-9.3902130127,-176.5652313232
49,2014-06-21,-9.3906202316,-176.5652770996
50,2014-06-21,-9.4261064529,-176.56909179689998
51,2014-06-21,-9.4265384674,-176.5690612793
52,2014-06-21,-9.4270687103,-176.5690460205
53,2014-06-21,-9.2444562912,-176.5386962891
54,2014-06-21,-9.2434635162,-176.5386962891
55,2014-06-21,-9.2424030304,-176.5386962891
56,2014-06-21,-9.2403583527,-176.5386199951
57,2014-06-21,-9.2382898331,-176.5386199951
58,2014-06-21,-9.234161377000001,-176.53871154790002
59,2014-06-21,-9.2320785522,-176.5387573242
60,2014-06-22,-9.049896240199999,-176.540725708
61,2014-06-22,-9.0449266434,-176.54080200200002
62,2014-06-22,-9.0429286957,-176.54080200200002
63,2014-06-22,-9.0419397354,-176.54083251950001
64,2014-06-22,-9.0409383774,-176.5408630371
65,2014-06-22,-9.038941383400001,-176.5408782959
66,2014-06-22,-9.1448535919,-176.5457000732
67,2014-06-22,-9.145442009,-176.5456695557
68,2014-06-22,-9.1459369659,-176.5456390381
69,2014-06-22,-9.1502666473,-176.5453491211
70,2014-06-22,-9.1508302689,-176.54527282709998
71,2014-06-22,-9.1513786316,-176.5451812744
72,2014-06-22,-9.151921272300001,-176.5450592041
73,2014-06-22,-9.1524686813,-176.5449829102
74,2014-06-22,-9.273823738099999,-176.54426574709998
75,2014-06-22,-9.2755279541,-176.54411315919998
76,2014-06-22,-9.2761898041,-176.5440979004
77,2014-06-22,-9.2784814835,-176.54386901860002
78,2014-06-22,-9.2801866531,-176.5436096191
79,2014-06-22,-9.2807836533,-176.54356384279998
80,2014-06-22,-9.2842435837,-176.5433807373
81,2014-06-22,-9.2860946655,-176.5432281494
82,2014-06-22,-9.3421964645,-176.54475402830002
83,2014-06-22,-9.3427534103,-176.5447845459
84,2014-06-22,-9.3432645798,-176.5448303223
85,2014-06-22,-9.343930244400001,-176.5448608398
86,2014-06-22,-9.3966083527,-176.54370117189998
87,2014-06-22,-9.3985853195,-176.5437469482
88,2014-06-22,-9.4057102203,-176.5440826416
89,2014-06-22,-9.4178237915,-176.54359436040002
90,2014-06-22,-9.4188251495,-176.54359436040002
91,2014-06-22,-9.440770149199999,-176.5461273193
92,2014-06-22,-9.4413566589,-176.5462036133
93,2014-06-22,-9.4449453354,-176.5467529297
94,2014-06-22,-9.4455680847,-176.5467376709
95,2014-06-22,-9.4489765167,-176.5469360352
96,2014-06-22,-9.449876785299999,-176.54698181150002
97,2014-06-22,-9.451274871799999,-176.5469665527
98,2014-06-22,-9.4520902634,-176.5469970703
99,2014-06-22,-9.4528102875,-176.5470733643
100,2014-06-22,-9.366733551,-176.53385925290002
101,2014-06-22,-9.3646364212,-176.5338134766
102,2014-06-22,-9.363703727699999,-176.5338134766
103,2014-06-22,-9.3617115021,-176.53382873540002
104,2014-06-22,-9.282823562599999,-176.53396606450002
105,2014-06-22,-9.2805500031,-176.53401184080002
106,2014-06-22,-9.2739496231,-176.5340423584
107,2014-06-22,-9.270991325399999,-176.5340423584
108,2014-06-22,-9.1039552689,-176.53393554689998
109,2014-06-22,-9.1003637314,-176.53396606450002
110,2014-06-22,-9.0993404388,-176.5339508057
111,2014-06-22,-9.0983829498,-176.5339508057
112,2014-06-22,-9.0953950882,-176.53407287599998
113,2014-06-22,-9.0934514999,-176.53410339360002
114,2014-06-22,-9.0924720764,-176.53410339360002
115,2014-06-22,-9.0905265808,-176.53407287599998
116,2014-06-22,-9.0895414352,-176.53407287599998
117,2014-06-22,-9.0472583771,-176.5338745117
118,2014-06-23,-9.1411437988,-176.55210876459998
119,2014-06-23,-9.1432437897,-176.55178833009998
120,2014-06-23,-9.1438570023,-176.55168151860002
121,2014-06-23,-9.144953727699999,-176.5513916016
122,2014-06-23,-9.2681770325,-176.5485534668
123,2014-06-23,-9.2687129974,-176.54847717290002
124,2014-06-23,-9.2698812485,-176.5482635498
125,2014-06-23,-9.270424842799999,-176.54823303220002
126,2014-06-23,-9.271481514,-176.5481109619
127,2014-06-23,-9.2741832733,-176.5480499268
128,2014-06-23,-9.364232063300001,-176.5470123291
129,2014-06-23,-9.364811897300001,-176.54711914060002
130,2014-06-23,-9.380570411699999,-176.54736328119998
131,2014-06-23,-9.3827085495,-176.5478057861
132,2014-06-23,-9.3948316574,-176.54998779299999
133,2014-06-23,-9.396664619400001,-176.5500793457
134,2014-06-23,-9.3969602585,-176.5500335693
135,2014-06-23,-9.3983430862,-176.55046081540002
136,2014-06-23,-9.3989019394,-176.5505065918
137,2014-06-23,-9.4000968933,-176.55061340330002
138,2014-06-23,-9.4038581848,-176.55123901369998
139,2014-06-23,-9.488401413,-176.5333557129
140,2014-06-23,-9.287738800000001,-176.53323364259998
141,2014-06-23,-9.1841936111,-176.5334014893
142,2014-06-23,-9.1810712814,-176.53337097169998
143,2014-06-23,-9.180067062400001,-176.53337097169998
144,2014-06-23,-9.1790151596,-176.5333557129
145,2014-06-23,-9.1769514084,-176.53330993650002
146,2014-06-23,-9.174902916,-176.5333557129
147,2014-06-23,-9.0838432312,-176.5335388184
148,2014-06-24,-9.1506814957,-176.55891418459998
149,2014-06-24,-9.1526279449,-176.5592651367
150,2014-06-24,-9.1532096863,-176.5593719482
151,2014-06-24,-9.154431343099999,-176.5594329834
152,2014-06-24,-9.287648201,-176.55151367189998
153,2014-06-24,-9.2892398834,-176.55172729490002
154,2014-06-24,-9.2939720154,-176.55249023439998
155,2014-06-24,-9.410697937,-176.5500793457
156,2014-06-24,-9.4113817215,-176.5501708984
157,2014-06-24,-9.4120664597,-176.55029296880002
158,2014-06-24,-9.412681579600001,-176.55039978029998
159,2014-06-24,-9.4138364792,-176.55053710939998
160,2014-06-24,-9.4144535065,-176.5506439209
161,2014-06-24,-9.416176796,-176.55094909669998
162,2014-06-24,-9.4168634415,-176.55113220209998
163,2014-06-24,-9.4195013046,-176.5517578125
164,2014-06-24,-9.4216871262,-176.5521697998
165,2014-06-24,-9.530376434299999,-176.55671691889998
166,2014-06-24,-9.5333185196,-176.556350708
167,2014-06-24,-9.426984787,-176.5305633545
168,2014-06-24,-9.4248514175,-176.5305633545
169,2014-06-24,-9.423781395,-176.53059387209998
170,2014-06-24,-9.4216680527,-176.53065490720002
171,2014-06-24,-9.282012939500001,-176.53211975099998
172,2014-06-24,-9.2778253555,-176.5321807861
173,2014-06-24,-9.2767686844,-176.5321807861
174,2014-06-24,-9.1394729614,-176.533493042
175,2014-06-24,-9.081350326499999,-176.5343170166
176,2014-06-25,-9.0894813538,-176.5506896973
177,2014-06-25,-9.0899982452,-176.55056762700002
178,2014-06-25,-9.441903114299999,-176.5447845459
179,2014-06-25,-9.442910194400001,-176.54432678220002
180,2014-06-25,-9.443572997999999,-176.5441436768
181,2014-06-25,-9.4445981979,-176.54386901860002
182,2014-06-25,-9.4450397491,-176.54376220700001
183,2014-06-25,-9.4465751648,-176.5434417725
184,2014-06-25,-9.5798597336,-176.5335083008
185,2014-06-25,-9.5788002014,-176.5335388184
186,2014-06-25,-9.565413475,-176.5336151123
187,2014-06-25,-9.3473596573,-176.53504943849998
188,2014-06-25,-9.1418466568,-176.5323791504
189,2014-06-25,-9.1420402527,-176.5311126709
190,2014-06-25,-9.1422348022,-176.5297393799
191,2014-06-25,-9.1426534653,-176.52716064450001
192,2014-06-26,-9.1312580109,-176.5643920898
193,2014-06-26,-9.1867446899,-176.55126953119998
194,2014-06-26,-9.1899404526,-176.55130004880002
195,2014-06-21,-9.0654878616,-176.5691070557
196,2014-06-21,-9.0669517517,-176.5691375732
197,2014-06-21,-9.067741394,-176.56916809080002
198,2014-06-21,-9.0688962936,-176.56915283200001
199,2014-06-21,-9.184095382699999,-176.5693206787
200,2014-06-21,-9.1854887009,-176.56930541990002
201,2014-06-21,-9.186293602000001,-176.5693359375
202,2014-06-21,-9.1882333755,-176.5691986084
203,2014-06-21,-9.1887645721,-176.56916809080002
204,2014-06-21,-9.1896734238,-176.5690612793
205,2014-06-21,-9.1911363602,-176.56901550290002
206,2014-06-21,-9.1919765472,-176.5690002441
207,2014-06-21,-9.1927967072,-176.56901550290002
208,2014-06-21,-9.1934719086,-176.5689697266
209,2014-06-21,-9.1941146851,-176.568939209
210,2014-06-21,-9.194649696399999,-176.56887817380002
211,2014-06-21,-9.195318222000001,-176.5688323975
212,2014-06-21,-9.196802139299999,-176.5688018799
213,2014-06-21,-9.197574615499999,-176.56874084470002
214,2014-06-21,-9.198451995800001,-176.5687561035
215,2014-06-21,-9.1991767883,-176.56874084470002
216,2014-06-21,-9.2809267044,-176.5581817627
217,2014-06-21,-9.2918367386,-176.5562133789
218,2014-06-21,-9.293094635,-176.5559387207
219,2014-06-21,-9.2933864594,-176.55590820310002
220,2014-06-21,-9.2936449051,-176.55574035639998
221,2014-06-21,-9.2941217422,-176.55545043950002
222,2014-06-21,-9.2946634293,-176.55528259279998
223,2014-06-21,-9.2952136993,-176.5550994873
224,2014-06-21,-9.2958545685,-176.5549163818
225,2014-06-21,-9.297651290900001,-176.5542755127
226,2014-06-21,-9.2979679108,-176.5541381836
227,2014-06-21,-9.2989349365,-176.55389404299999
228,2014-06-21,-9.2998533249,-176.5537261963
229,2014-06-21,-9.3326864243,-176.5589294434
230,2014-06-21,-9.3332586288,-176.5590362549
231,2014-06-21,-9.3337602615,-176.5591278076
232,2014-06-21,-9.3342952728,-176.55921936040002
233,2014-06-21,-9.3352298737,-176.55938720700001
234,2014-06-21,-9.3357381821,-176.55946350099998
235,2014-06-21,-9.3363113403,-176.5595703125
236,2014-06-21,-9.3370018005,-176.5597076416
237,2014-06-21,-9.3376712799,-176.5598297119
238,2014-06-21,-9.338218689,-176.55989074709998
239,2014-06-21,-9.3386220932,-176.5599365234
240,2014-06-21,-9.3389101028,-176.5599060059
241,2014-06-21,-9.3871746063,-176.56483459470002
242,2014-06-21,-9.3886871338,-176.565032959
243,2014-06-21,-9.3902130127,-176.5652313232
244,2014-06-21,-9.3906202316,-176.5652770996
245,2014-06-21,-9.4261064529,-176.56909179689998
246,2014-06-21,-9.4265384674,-176.5690612793
247,2014-06-21,-9.4270687103,-176.5690460205
248,2014-06-21,-9.2444562912,-176.5386962891
249,2014-06-21,-9.2434635162,-176.5386962891
250,2014-06-21,-9.2424030304,-176.5386962891
251,2014-06-21,-9.2403583527,-176.5386199951
252,2014-06-21,-9.2382898331,-176.5386199951
253,2014-06-21,-9.234161377000001,-176.53871154790002
254,2014-06-21,-9.2320785522,-176.5387573242
255,2014-06-22,-9.049896240199999,-176.540725708
256,2014-06-22,-9.0449266434,-176.54080200200002
257,2014-06-22,-9.0429286957,-176.54080200200002
258,2014-06-22,-9.0419397354,-176.54083251950001
259,2014-06-22,-9.0409383774,-176.5408630371
260,2014-06-22,-9.038941383400001,-176.5408782959
261,2014-06-22,-9.1448535919,-176.5457000732
262,2014-06-22,-9.145442009,-176.5456695557
263,2014-06-22,-9.1459369659,-176.5456390381
264,2014-06-22,-9.1502666473,-176.5453491211
265,2014-06-22,-9.1508302689,-176.54527282709998
266,2014-06-22,-9.1513786316,-176.5451812744
267,2014-06-22,-9.151921272300001,-176.5450592041
268,2014-06-22,-9.1524686813,-176.5449829102
269,2014-06-22,-9.273823738099999,-176.54426574709998
270,2014-06-22,-9.2755279541,-176.54411315919998
271,2014-06-22,-9.2761898041,-176.5440979004
272,2014-06-22,-9.2784814835,-176.54386901860002
273,2014-06-22,-9.2801866531,-176.5436096191
274,2014-06-22,-9.2807836533,-176.54356384279998
275,2014-06-22,-9.2842435837,-176.5433807373
276,2014-06-22,-9.2860946655,-176.5432281494
277,2014-06-22,-9.3421964645,-176.54475402830002
278,2014-06-22,-9.3427534103,-176.5447845459
279,2014-06-22,-9.3432645798,-176.5448303223
280,2014-06-22,-9.343930244400001,-176.5448608398
281,2014-06-22,-9.3966083527,-176.54370117189998
282,2014-06-22,-9.3985853195,-176.5437469482
283,2014-06-22,-9.4057102203,-176.5440826416
284,2014-06-22,-9.4178237915,-176.54359436040002
285,2014-06-22,-9.4188251495,-176.54359436040002
286,2014-06-22,-9.440770149199999,-176.5461273193
287,2014-06-22,-9.4413566589,-176.5462036133
288,2014-06-22,-9.4449453354,-176.5467529297
289,2014-06-22,-9.4455680847,-176.5467376709
290,2014-06-22,-9.4489765167,-176.5469360352
291,2014-06-22,-9.449876785299999,-176.54698181150002
292,2014-06-22,-9.451274871799999,-176.5469665527
293,2014-06-22,-9.4520902634,-176.5469970703
294,2014-06-22,-9.4528102875,-176.5470733643
295,2014-06-22,-9.366733551,-176.53385925290002
296,2014-06-22,-9.3646364212,-176.5338134766
297,2014-06-22,-9.363703727699999,-176.5338134766
298,2014-06-22,-9.3617115021,-176.53382873540002
299,2014-06-22,-9.282823562599999,-176.53396606450002
300,2014-06-22,-9.2805500031,-176.53401184080002
301,2014-06-22,-9.2739496231,-176.5340423584
302,2014-06-22,-9.270991325399999,-176.5340423584
303,2014-06-22,-9.1039552689,-176.53393554689998
304,2014-06-22,-9.1003637314,-176.53396606450002
305,2014-06-22,-9.0993404388,-176.5339508057
306,2014-06-22,-9.0983829498,-176.5339508057
307,2014-06-22,-9.0953950882,-176.53407287599998
308,2014-06-22,-9.0934514999,-176.53410339360002
309,2014-06-22,-9.0924720764,-176.53410339360002
310,2014-06-22,-9.0905265808,-176.53407287599998
311,2014-06-22,-9.0895414352,-176.53407287599998
312,2014-06-22,-9.0472583771,-176.5338745117
313,2014-06-23,-9.1411437988,-176.55210876459998
314,2014-06-23,-9.1432437897,-176.55178833009998
315,2014-06-23,-9.1438570023,-176.55168151860002
316,2014-06-23,-9.144953727699999,-176.5513916016
317,2014-06-23,-9.2681770325,-176.5485534668
318,2014-06-23,-9.2687129974,-176.54847717290002
319,2014-06-23,-9.2698812485,-176.5482635498
320,2014-06-23,-9.270424842799999,-176.54823303220002
321,2014-06-23,-9.271481514,-176.5481109619
322,2014-06-23,-9.2741832733,-176.5480499268
323,2014-06-23,-9.364232063300001,-176.5470123291
324,2014-06-23,-9.364811897300001,-176.54711914060002
325,2014-06-23,-9.380570411699999,-176.54736328119998
326,2014-06-23,-9.3827085495,-176.5478057861
327,2014-06-23,-9.3948316574,-176.54998779299999
328,2014-06-23,-9.396664619400001,-176.5500793457
329,2014-06-23,-9.3969602585,-176.5500335693
330,2014-06-23,-9.3983430862,-176.55046081540002
331,2014-06-23,-9.3989019394,-176.5505065918
332,2014-06-23,-9.4000968933,-176.55061340330002
333,2014-06-23,-9.4038581848,-176.55123901369998
334,2014-06-23,-9.488401413,-176.5333557129
335,2014-06-23,-9.287738800000001,-176.53323364259998
336,2014-06-23,-9.1841936111,-176.5334014893
337,2014-06-23,-9.1810712814,-176.53337097169998
338,2014-06-23,-9.180067062400001,-176.53337097169998
339,2014-06-23,-9.1790151596,-176.5333557129
340,2014-06-23,-9.1769514084,-176.53330993650002
341,2014-06-23,-9.174902916,-176.5333557129
342,2014-06-23,-9.0838432312,-176.5335388184
343,2014-06-24,-9.1506814957,-176.55891418459998
344,2014-06-24,-9.1526279449,-176.5592651367
345,2014-06-24,-9.1532096863,-176.5593719482
346,2014-06-24,-9.154431343099999,-176.5594329834
347,2014-06-24,-9.287648201,-176.55151367189998
348,2014-06-24,-9.2892398834,-176.55172729490002
349,2014-06-24,-9.2939720154,-176.55249023439998
350,2014-06-24,-9.410697937,-176.5500793457
351,2014-06-24,-9.4113817215,-176.5501708984
352,2014-06-24,-9.4120664597,-176.55029296880002
353,2014-06-24,-9.412681579600001,-176.55039978029998
354,2014-06-24,-9.4138364792,-176.55053710939998
355,2014-06-24,-9.4144535065,-176.5506439209
356,2014-06-24,-9.416176796,-176.55094909669998
357,2014-06-24,-9.4168634415,-176.55113220209998
358,2014-06-24,-9.4195013046,-176.5517578125
359,2014-06-24,-9.4216871262,-176.5521697998
360,2014-06-24,-9.530376434299999,-176.55671691889998
361,2014-06-24,-9.5333185196,-176.556350708
362,2014-06-24,-9.426984787,-176.5305633545
363,2014-06-24,-9.4248514175,-176.5305633545
364,2014-06-24,-9.423781395,-176.53059387209998
365,2014-06-24,-9.4216680527,-176.53065490720002
366,2014-06-24,-9.282012939500001,-176.53211975099998
367,2014-06-24,-9.2778253555,-176.5321807861
368,2014-06-24,-9.2767686844,-176.5321807861
369,2014-06-24,-9.1394729614,-176.533493042
370,2014-06-24,-9.081350326499999,-176.5343170166
371,2014-06-25,-9.0894813538,-176.5506896973
372,2014-06-25,-9.0899982452,-176.55056762700002
373,2014-06-25,-9.441903114299999,-176.5447845459
374,2014-06-25,-9.442910194400001,-176.54432678220002
375,2014-06-25,-9.443572997999999,-176.5441436768
376,2014-06-25,-9.4445981979,-176.54386901860002
377,2014-06-25,-9.4450397491,-176.54376220700001
378,2014-06-25,-9.4465751648,-176.5434417725
379,2014-06-25,-9.5798597336,-176.5335083008
380,2014-06-25,-9.5788002014,-176.5335388184
381,2014-06-25,-9.565413475,-176.5336151123
382,2014-06-25,-9.3473596573,-176.53504943849998
383,2014-06-25,-9.1418466568,-176.5323791504
384,2014-06-25,-9.1420402527,-176.5311126709
385,2014-06-25,-9.1422348022,-176.5297393799
386,2014-06-25,-9.1426534653,-176.52716064450001
387,2014-06-26,-9.1312580109,-176.5643920898
388,2014-06-26,-9.1867446899,-176.55126953119998
389,2014-06-26,-9.1899404526,-176.55130004880002
