0,1,date
15.4042882919,-17.068693161,2012-07-31
19.2617034912,-17.0843524933,2012-08-05
19.2629318237,-17.0707798004,2012-08-05
19.2666988373,-17.3980960846,2012-08-06
18.4363441467,-17.1298542023,2012-08-08
18.4181251526,-17.1167392731,2012-08-08
17.3491573334,-16.7946090698,2012-08-13
17.4808349609,-16.8260498047,2012-08-14
17.4797077179,-16.8255405426,2012-08-14
20.1973190308,-19.0893154144,2012-08-26
20.1971530914,-19.0894470215,2012-08-26
20.1888408661,-19.0990085602,2012-08-26
20.1888008118,-19.0990924835,2012-08-26
20.1886196136,-19.0994377136,2012-08-26
20.1885528564,-19.0995464325,2012-08-26
15.7492580414,-17.4330387115,2012-09-07
15.7406616211,-17.4321975708,2012-09-07
15.7393131256,-17.4329147339,2012-09-07
15.7286987305,-17.5369319916,2012-09-09
18.5696659088,-17.9420070648,2012-09-18
18.3421173096,-17.6318225861,2012-09-30
18.3420982361,-17.631816864,2012-09-30
18.3390960693,-17.6303024292,2012-09-30
18.3389282227,-17.63022995,2012-09-30
18.2795619965,-17.6130695343,2012-09-30
18.279712677,-17.6131916046,2012-09-30
17.8615684509,-17.8192024231,2012-10-02
15.7444648743,-17.157245636,2012-11-07
17.5336227417,-17.7634830475,2012-11-24
17.5340499878,-17.7636089325,2012-11-24
17.5341339111,-17.7636318207,2012-11-24
17.5344142914,-17.763715744,2012-11-24
17.5344715118,-17.7637424469,2012-11-24
17.5345115662,-17.7637481689,2012-11-24
17.5346603394,-17.7638034821,2012-11-24
17.5349025726,-17.7638816833,2012-11-24
17.9753246307,-18.3484725952,2012-12-03
17.9749603271,-18.3488292694,2012-12-03
17.9748191833,-18.3489532471,2012-12-03
17.9744987488,-18.3492507935,2012-12-03
17.9743309021,-18.3494338989,2012-12-03
17.9741744995,-18.349615097,2012-12-03
17.9737663269,-18.3500785828,2012-12-03
17.9737091064,-18.3501205444,2012-12-03
17.9734573364,-18.3503704071,2012-12-03
17.973405838,-18.3504142761,2012-12-03
17.9733295441,-18.3504810333,2012-12-03
17.9731769562,-18.3505954742,2012-12-03
17.9731292725,-18.3506202698,2012-12-03
17.9724807739,-18.3511829376,2012-12-03
17.9724216461,-18.3512439728,2012-12-03
17.971818924,-18.3519153595,2012-12-03
17.2738037109,-17.6366615295,2012-12-15
17.2223377228,-17.6672687531,2012-12-15
17.1527671814,-17.7066631317,2012-12-15
17.1523723602,-17.7068901062,2012-12-15
17.1523361206,-17.7069168091,2012-12-15
17.1124305725,-17.7301387787,2012-12-15
17.1123809814,-17.7301578522,2012-12-15
17.11236763,-17.7301654816,2012-12-15
17.1121063232,-17.7303447723,2012-12-15
15.4199314117,-18.2481384277,2012-12-19
13.7256584167,-17.620672226,2013-12-18
13.7381067276,-17.6200275421,2013-12-18
13.7406463623,-17.6191864014,2013-12-18
12.4587202072,-20.7995834351,2014-02-16
12.4564552307,-20.8006744385,2014-02-16
12.4546203613,-20.8017215729,2014-02-16
12.4544801712,-20.8017959595,2014-02-16
12.4544248581,-20.8018321991,2014-02-16
12.4543380737,-20.8018798828,2014-02-16
12.45399189,-20.8020534515,2014-02-16
12.4534196854,-20.8023281097,2014-02-16
12.4520463943,-20.8028964996,2014-02-16
12.4072647095,-20.82462883,2014-02-16
12.4070663452,-20.8247470856,2014-02-16
12.4067182541,-20.8249282837,2014-02-16
12.4064683914,-20.8250732422,2014-02-16
12.4061164856,-20.8252639771,2014-02-16
12.4059448242,-20.8253746033,2014-02-16
12.4059295654,-20.82538414,2014-02-16
12.4058570862,-20.825428009,2014-02-16
12.4055633545,-20.8255939484,2014-02-16
12.4054946899,-20.8256340027,2014-02-16
12.4054613113,-20.8256530762,2014-02-16
12.4054069519,-20.8256874084,2014-02-16
12.4053630829,-20.8257045746,2014-02-16
12.4046802521,-20.8261547089,2014-02-16
12.4046630859,-20.8261795044,2014-02-16
12.4044799805,-20.8262844086,2014-02-16
15.0259952545,-18.3999595642,2014-09-07
11.2332553864,-17.5708427429,2015-02-02
16.029914856,-18.5222606659,2015-08-10
15.8548183441,-20.0667362213,2015-08-20
15.8576917648,-20.0685749054,2015-08-20
18.5774536133,-20.1319255829,2015-09-01
18.3725318909,-20.3071708679,2015-09-03
